hidden spec  : [32, 32, 32]
error median : [0.6661865102264211]
error max    : [1074.8224894205728]
error min    : [0.000762939453125]
error quater : [1.32]
error top 90% : [2.2]
error top 95% : [3.01]
error top 5  : [[1074.82]
 [ 323.23]
 [  97.4 ]
 [  32.47]
 [  29.42]]
error top5 arg: [[1749]
 [1098]
 [ 278]
 [1533]
 [ 721]]
error mean without top1 error :1.2781991826353585
==================================================
hidden spec  : [32, 32, 32]
error median : [0.6497482245113739]
error max    : [67.04444165499706]
error min    : [0.00019953801081730772]
error quater : [1.29]
error top 90% : [2.2]
error top 95% : [2.98]
error top 5  : [[67.04]
 [36.46]
 [26.72]
 [25.7 ]
 [12.49]]
error top5 arg: [[ 278]
 [1749]
 [ 721]
 [1533]
 [1111]]
error mean without top1 error :1.0345693026103664
==================================================
