hidden spec  : [32, 32, 32]
error median : [0.7932302114125844]
error max    : [418.81988231952374]
error min    : [0.00011270696466619319]
error quater : [1.41]
error top 90% : [2.47]
error top 95% : [3.42]
error top 5  : [[418.82]
 [341.65]
 [115.59]
 [ 38.36]
 [ 36.52]]
error top5 arg: [[1098]
 [1749]
 [ 278]
 [ 721]
 [1533]]
error mean without top1 error :1.4182956188755718
==================================================
hidden spec  : [32, 32, 32]
error median : [0.6485308919634202]
error max    : [232.24303905780502]
error min    : [0.000294938255044203]
error quater : [1.21]
error top 90% : [2.02]
error top 95% : [2.85]
error top 5  : [[232.24]
 [177.63]
 [ 93.47]
 [ 29.55]
 [ 28.77]]
error top5 arg: [[1098]
 [1749]
 [ 278]
 [1533]
 [ 721]]
error mean without top1 error :1.1320212841704003
==================================================
